# test mapping is similar to published correspondence tables

    Code
      tbl_test
    Output
      # A tibble: 550 x 3
      # Groups:   sa2_code_2016 [522]
         sa2_code_2016 sa2_code_2021 ratio
         <chr>         <chr>         <dbl>
       1 301011001     301011001         1
       2 301011002     301011002         1
       3 301011003     301011003         1
       4 301011004     301011004         1
       5 301011005     301011005         1
       6 301011006     301011006         1
       7 301021007     301021007         1
       8 301021008     301021008         1
       9 301021009     301021009         1
      10 301021011     301021011         1
      # i 540 more rows
