…
## Value

An `sf` object.

## Examples

``` r
get_mb21_pop()
#> Simple feature collection with 368286 features and 24 fields (with 31 geometries empty)
#> Geometry type: POINT
#> Dimension:     XY
#> Bounding box:  xmin: 96.82008 ymin: -43.73813 xmax: 167.9959 ymax: -9.143038
#> Geodetic CRS:  GDA2020
#> # A tibble: 368,286 × 25
#>    MB_CODE21   MB_CAT21    CHG_FLAG21 CHG_LBL21 SA1_CODE21 SA2_CODE21 SA2_NAME21
#>    <chr>       <chr>       <chr>      <chr>     <chr>      <chr>      <chr>     
#>  1 10000010000 Residential 0          No change 109011172… 109011172  Albury - …
#>  2 10000021000 Commercial  0          No change 109011176… 109011176  Lavington 
#>  3 10000022000 Commercial  0          No change 109011176… 109011176  Lavington 
#>  4 10000023000 Commercial  0          No change 109011176… 109011176  Lavington 
#>  5 10000024000 Residential 0          No change 109011176… 109011176  Lavington 
#>  6 10000040000 Residential 0          No change 109011176… 109011176  Lavington 
#>  7 10000050000 Residential 0          No change 109011176… 109011176  Lavington 
#>  8 10000061000 Residential 0          No change 109011172… 109011172  Albury - …
#>  9 10000062000 Residential 0          No change 109011172… 109011172  Albury - …
#> 10 10000063000 Residential 0          No change 109011172… 109011172  Albury - …
#> # ℹ 368,276 more rows
#> # ℹ 18 more variables: SA3_CODE21 <chr>, SA3_NAME21 <chr>, SA4_CODE21 <chr>,
#> #   SA4_NAME21 <chr>, GCC_CODE21 <chr>, GCC_NAME21 <chr>, STE_CODE21 <chr>,
#> #   STE_NAME21 <chr>, AUS_CODE21 <chr>, AUS_NAME21 <chr>, AREASQKM21 <dbl>,
#> #   LOCI_URI21 <chr>, geometry <POINT [°]>, MB_CATEGORY_NAME_2021 <chr>,
#> #   AREA_ALBERS_SQKM <dbl>, Dwelling <dbl>, Person <dbl>, State <dbl>
```
