…
## Value

A `tibble`.

## Examples

``` r
get_correspondence_tbl(from_area = "sa2", from_year = 2021, to_area = "LHN")
#> Error in get(filename) : object 'CG_SA2_2021_LHN_' not found
#> Last resort: making correspondence table using shapes and population at mesh block level
#> The data for the Local Hospital Networks (LHN) are from here: <https://hub.arcgis.com/datasets/ACSQHC::local-hospital-networks/explore>
#> # A tibble: 2,526 × 3
#>    sa2_code_2021 LHN_Name     ratio
#>    <chr>         <chr>        <dbl>
#>  1 101021007     Southern NSW     1
#>  2 101021008     Southern NSW     1
#>  3 101021009     Southern NSW     1
#>  4 101021010     Southern NSW     1
#>  5 101021012     Southern NSW     1
#>  6 101021610     Southern NSW     1
#>  7 101021611     Southern NSW     1
#>  8 101031013     Southern NSW     1
#>  9 101031014     Southern NSW     1
#> 10 101031015     Southern NSW     1
#> # ℹ 2,516 more rows
```
