Advanced mapping with correspondence example - ACPR • hpa.spatial
…
The plan

Use map_with_correspondence() but create a new
sf (POINT) object that incorporates the estimated
residential population projections (ERP) from 2023 at the SA2 level.
Since we don’t have mesh block population data from the ERP, this won’t
account for within-SA2-differences in population growth from 2021 to
2023, but it will account for differences in between-SA2-differences in
population growth.

sa2_erp23 # use ERP data at SA2 level from ABS <https://www.abs.gov.au/statistics/people/population/regional-population/latest-release#data-downloads>
#> # A tibble: 2,454 × 2
#>    sa2_code_2021   erp
#>    <chr>         <dbl>
#>  1 101021007      4396
#>  2 101021008      8483
#>  3 101021009     11420
#>  4 101021010      5099
#>  5 101021012     12873
#>  6 101021610      7352
#>  7 101021611     17274
#>  8 101031013      2468
#>  9 101031014      6781
#> 10 101031015      3538
#> # ℹ 2,444 more rows
…
adj_mb21_pop
#> Simple feature collection with 368172 features and 3 fields
#> Geometry type: POINT
#> Dimension:     XY
#> Bounding box:  xmin: 96.82008 ymin: -43.73813 xmax: 167.9959 ymax: -9.143038
#> Geodetic CRS:  GDA2020
#> # A tibble: 368,172 × 4
#>    MB_CODE21   sa2_code_2021             geometry Person
#>    <chr>       <chr>                  <POINT [°]>  <dbl>
#>  1 10000010000 109011172     (146.9285 -36.08246)  68.2 
#>  2 10000021000 109011176      (146.9337 -36.0494)   0   
#>  3 10000022000 109011176     (146.9301 -36.04838)   5.99
#>  4 10000023000 109011176      (146.9324 -36.0515)   3.99
#>  5 10000024000 109011176     (146.9318 -36.04842)  22.0 
#>  6 10000040000 109011176     (146.9314 -36.04343)  70.8 
#>  7 10000050000 109011176     (146.9521 -36.04567)  63.9 
#>  8 10000061000 109011172     (146.9494 -36.07781) 143.  
#>  9 10000062000 109011172     (146.9445 -36.07819)  76.9 
#> 10 10000063000 109011172     (146.9473 -36.07791) 168.  
#> # ℹ 368,162 more rows
…
