mapping-data • hpa.spatial
…
These are helpful when mapping between geographies which they release
editions for. For example, between the 2011 and 2016 edition of
SA2s.

sa2_cg <- get_correspondence_tbl(
  from_area="sa2", 
  from_year = 2011, 
  to_area = "sa2", 
  to_year = 2016
)

sa2_cg
#> # A tibble: 2,426 × 3
#>    SA2_MAINCODE_2011 SA2_MAINCODE_2016 ratio
#>    <chr>             <chr>             <dbl>
#>  1 101011001         101051539             1
#>  2 101011002         101051540             1
#>  3 101011003         101061541             1
#>  4 101011004         101061542             1
#>  5 101011005         101061543             1
#>  6 101011006         101061544             1
#>  7 101021007         101021007             1
#>  8 101021008         101021008             1
#>  9 101021009         101021009             1
#> 10 101021010         101021010             1
#> # ℹ 2,416 more rows

Some of the SA2 codes from 2011 will be split into more than one SA2
code in the 2016 edition.

sa2_cg |> filter(ratio != 1)
#> # A tibble: 461 × 3
#>    SA2_MAINCODE_2011 SA2_MAINCODE_2016   ratio
#>    <chr>             <chr>               <dbl>
#>  1 102021047         102021047         0.993  
#>  2 102021047         102021055         0.00658
#>  3 104011082         104011082         1.00   
#>  4 107011130         107011545         0.482  
#>  5 107011130         107011546         0.362  
#>  6 107011130         107011547         0.157  
#>  7 107041144         107041144         1.00   
#>  8 107041149         107041548         0.449  
#>  9 107041149         107041549         0.551  
#> 10 109011172         109011172         1.00   
#> # ℹ 451 more rows
…
